2.368144306997776172e-01
1.555310238288070968e-01
1.665154277999305044e-01
6.963097671931004484e-01
4.811246419610040181e-01
1.309431958363408977e-01
9.818570452501388379e-01
7.722419673212483904e-01
9.460861216674908425e-01
5.142252497062846928e-01
