1.694769497921896351e-01
1.261424568711917438e-01
1.663018802737381563e-02
8.410203589694447146e-01
5.100734832643228911e-01
4.741222241307074814e-02
9.919201452775625594e-01
8.762515650088392727e-01
9.752003509887778865e-01
5.830167597668406421e-01
